{
  "page": 1,
  "total_results": 388880,
  "total_pages": 19444,
  "results": [
    {
      "vote_count": 846,
      "id": 338952,
      "video": false,
      "vote_average": 7.2,
      "title": "Fantastic Beasts: The Crimes of Grindelwald",
      "popularity": 428.374,
      "poster_path": "\/uyJgTzAsp3Za2TaPiZt2yaKYRIR.jpg",
      "original_language": "en",
      "original_title": "Fantastic Beasts: The Crimes of Grindelwald",
      "genre_ids": [
        18,
        10751,
        14
      ],
      "backdrop_path": "\/xgbeBCjmFpRYHDF7tQ7U98EREWp.jpg",
      "adult": false,
      "overview": "Gellert Grindelwald has escaped imprisonment and has begun gathering followers to his cause—elevating wizards above all non-magical beings. The only one capable of putting a stop to him is the wizard he once called his closest friend, Albus Dumbledore. However, Dumbledore will need to seek help from the wizard who had thwarted Grindelwald once before, his former student Newt Scamander, who agrees to help, unaware of the dangers that lie ahead. Lines are drawn as love and loyalty are tested, even among the truest friends and family, in an increasingly divided wizarding world.",
      "release_date": "2018-11-14"
    },
    {
      "vote_count": 2269,
      "id": 353081,
      "video": false,
      "vote_average": 7.3,
      "title": "Mission: Impossible - Fallout",
      "popularity": 194.274,
      "poster_path": "\/AkJQpZp9WoNdj7pLYSj1L0RcMMN.jpg",
      "original_language": "en",
      "original_title": "Mission: Impossible - Fallout",
      "genre_ids": [
        28,
        53,
        12
      ],
      "backdrop_path": "\/aw4FOsWr2FY373nKSxbpNi3fz4F.jpg",
      "adult": false,
      "overview": "When an IMF mission ends badly, the world is faced with dire consequences. As Ethan Hunt takes it upon himself to fulfill his original briefing, the CIA begin to question his loyalty and his motives. The IMF team find themselves in a race against time, hunted by assassins while trying to prevent a global catastrophe.",
      "release_date": "2018-07-13"
    },
    {
      "vote_count": 1149,
      "id": 424694,
      "video": false,
      "vote_average": 8.3,
      "title": "Bohemian Rhapsody",
      "popularity": 167.026,
      "poster_path": "\/lHu1wtNaczFPGFDTrjCSzeLPTKN.jpg",
      "original_language": "en",
      "original_title": "Bohemian Rhapsody",
      "genre_ids": [
        18,
        10402
      ],
      "backdrop_path": "\/pbXgLEYh8rlG2Km5IGZPnhcnuSz.jpg",
      "adult": false,
      "overview": "Singer Freddie Mercury, guitarist Brian May, drummer Roger Taylor and bass guitarist John Deacon take the music world by storm when they form the rock 'n' roll band Queen in 1970. Hit songs become instant classics. When Mercury's increasingly wild lifestyle starts to spiral out of control, Queen soon faces its greatest challenge yet – finding a way to keep the band together amid the success and excess.",
      "release_date": "2018-10-24"
    },
    {
      "vote_count": 64,
      "id": 507569,
      "video": false,
      "vote_average": 5.7,
      "title": "The Seven Deadly Sins: Prisoners of the Sky",
      "popularity": 146.387,
      "poster_path": "\/r6pPUVUKU5eIpYj4oEzidk5ZibB.jpg",
      "original_language": "en",
      "original_title": "劇場版 七つの大罪 天空の囚われ人",
      "genre_ids": [
        28,
        12,
        14,
        16
      ],
      "backdrop_path": "\/uKwOX7MtKlAaGeCQe6c4jc1vZpj.jpg",
      "adult": false,
      "overview": "Traveling in search of the rare ingredient, “sky fish”  Meliodas and Hawk arrive at a palace that floats above the clouds. The people there are busy preparing a ceremony, meant to protect their home from a ferocious beast that awakens once every 3,000 years. But before the ritual is complete, the Six Knights of Black—a Demon Clan army—removes the seal on the beast, threatening the lives of everyone in the Sky Palace.",
      "release_date": "2018-08-18"
    },
    {
      "vote_count": 98,
      "id": 360920,
      "video": false,
      "vote_average": 6.3,
      "title": "The Grinch",
      "popularity": 136.143,
      "poster_path": "\/rWQVj6Z8kPdsbt7XPjVBCltxq90.jpg",
      "original_language": "en",
      "original_title": "The Grinch",
      "genre_ids": [
        16,
        10751,
        35,
        14
      ],
      "backdrop_path": "\/zRDkmww7Bu11wiz2g86RxSreiY4.jpg",
      "adult": false,
      "overview": "The Grinch hatches a scheme to ruin Christmas when the residents of Whoville plan their annual holiday celebration.",
      "release_date": "2018-11-08"
    },
    {
      "vote_count": 847,
      "id": 346910,
      "video": false,
      "vote_average": 5.2,
      "title": "The Predator",
      "popularity": 127.281,
      "poster_path": "\/wMq9kQXTeQCHUZOG4fAe5cAxyUA.jpg",
      "original_language": "en",
      "original_title": "The Predator",
      "genre_ids": [
        878,
        28,
        53,
        12
      ],
      "backdrop_path": "\/f4E0ocYeToEuXvczZv6QArrMDJ.jpg",
      "adult": false,
      "overview": "From the outer reaches of space to the small-town streets of suburbia, the hunt comes home. Now, the universe’s most lethal hunters are stronger, smarter and deadlier than ever before, having genetically upgraded themselves with DNA from other species. When a young boy accidentally triggers their return to Earth, only a ragtag crew of ex-soldiers and a disgruntled science teacher can prevent the end of the human race.",
      "release_date": "2018-09-13"
    },
    {
      "vote_count": 2287,
      "id": 335983,
      "video": false,
      "vote_average": 6.5,
      "title": "Venom",
      "popularity": 122.527,
      "poster_path": "\/2uNW4WbgBXL25BAbXGLnLqX71Sw.jpg",
      "original_language": "en",
      "original_title": "Venom",
      "genre_ids": [
        878
      ],
      "backdrop_path": "\/VuukZLgaCrho2Ar8Scl9HtV3yD.jpg",
      "adult": false,
      "overview": "When Eddie Brock acquires the powers of a symbiote, he will have to release his alter-ego \"Venom\" to save his life.",
      "release_date": "2018-10-03"
    },
    {
      "vote_count": 1028,
      "id": 345887,
      "video": false,
      "vote_average": 6.2,
      "title": "The Equalizer 2",
      "popularity": 115.797,
      "poster_path": "\/cQvc9N6JiMVKqol3wcYrGshsIdZ.jpg",
      "original_language": "en",
      "original_title": "The Equalizer 2",
      "genre_ids": [
        53,
        28,
        80
      ],
      "backdrop_path": "\/z7noaCJ4KtmhwHw7QcNtnMMo4Qy.jpg",
      "adult": false,
      "overview": "Robert McCall, who serves an unflinching justice for the exploited and oppressed, embarks on a relentless, globe-trotting quest for vengeance when a long-time girl friend is murdered.",
      "release_date": "2018-07-19"
    },
    {
      "vote_count": 1734,
      "id": 332562,
      "video": false,
      "vote_average": 7.5,
      "title": "A Star Is Born",
      "popularity": 113.683,
      "poster_path": "\/wrFpXMNBRj2PBiN4Z5kix51XaIZ.jpg",
      "original_language": "en",
      "original_title": "A Star Is Born",
      "genre_ids": [
        18,
        10402,
        10749
      ],
      "backdrop_path": "\/840rbblaLc4SVxm8gF3DNdJ0YAE.jpg",
      "adult": false,
      "overview": "Seasoned musician Jackson Maine discovers—and falls in love with—struggling artist Ally. She has just about given up on her dream to make it big as a singer—until Jack coaxes her into the spotlight. But even as Ally's career takes off, the personal side of their relationship is breaking down, as Jack fights an ongoing battle with his own internal demons.",
      "release_date": "2018-10-03"
    },
    {
      "vote_count": 9438,
      "id": 299536,
      "video": false,
      "vote_average": 8.3,
      "title": "Avengers: Infinity War",
      "popularity": 107.14,
      "poster_path": "\/7WsyChQLEftFiDOVTGkv3hFpyyt.jpg",
      "original_language": "en",
      "original_title": "Avengers: Infinity War",
      "genre_ids": [
        12,
        878,
        28,
        14
      ],
      "backdrop_path": "\/lmZFxXgJE3vgrciwuDib0N8CfQo.jpg",
      "adult": false,
      "overview": "As the Avengers and their allies have continued to protect the world from threats too large for any one hero to handle, a new danger has emerged from the cosmic shadows: Thanos. A despot of intergalactic infamy, his goal is to collect all six Infinity Stones, artifacts of unimaginable power, and use them to inflict his twisted will on all of reality. Everything the Avengers have fought for has led up to this moment - the fate of Earth and existence itself has never been more uncertain.",
      "release_date": "2018-04-25"
    },
    {
      "vote_count": 1657,
      "id": 345940,
      "video": false,
      "vote_average": 5.9,
      "title": "The Meg",
      "popularity": 101.835,
      "poster_path": "\/eyWICPcxOuTcDDDbTMOZawoOn8d.jpg",
      "original_language": "en",
      "original_title": "The Meg",
      "genre_ids": [
        28,
        878,
        53
      ],
      "backdrop_path": "\/2uSCHUsmzb6KkQPFSxBQ7bgfJLE.jpg",
      "adult": false,
      "overview": "A deep sea submersible pilot revisits his past fears in the Mariana Trench, and accidentally unleashes the seventy foot ancestor of the Great White Shark believed to be extinct.",
      "release_date": "2018-08-09"
    },
    {
      "vote_count": 1474,
      "id": 439079,
      "video": false,
      "vote_average": 5.8,
      "title": "The Nun",
      "popularity": 97.248,
      "poster_path": "\/sFC1ElvoKGdHJIWRpNB3xWJ9lJA.jpg",
      "original_language": "en",
      "original_title": "The Nun",
      "genre_ids": [
        27,
        9648,
        53
      ],
      "backdrop_path": "\/fgsHxz21B27hOOqQBiw9L6yWcM7.jpg",
      "adult": false,
      "overview": "When a young nun at a cloistered abbey in Romania takes her own life, a priest with a haunted past and a novitiate on the threshold of her final vows are sent by the Vatican to investigate. Together they uncover the order’s unholy secret. Risking not only their lives but their faith and their very souls, they confront a malevolent force in the form of the same demonic nun that first terrorized audiences in “The Conjuring 2” as the abbey becomes a horrific battleground between the living and the damned.",
      "release_date": "2018-09-05"
    },
    {
      "vote_count": 3746,
      "id": 260513,
      "video": false,
      "vote_average": 7.6,
      "title": "Incredibles 2",
      "popularity": 90.139,
      "poster_path": "\/x1txcDXkcM65gl7w20PwYSxAYah.jpg",
      "original_language": "en",
      "original_title": "Incredibles 2",
      "genre_ids": [
        28,
        12,
        16,
        10751
      ],
      "backdrop_path": "\/mabuNsGJgRuCTuGqjFkWe1xdu19.jpg",
      "adult": false,
      "overview": "Elastigirl springs into action to save the day, while Mr. Incredible faces his greatest challenge yet – taking care of the problems of his three children.",
      "release_date": "2018-06-14"
    },
    {
      "vote_count": 202,
      "id": 556803,
      "video": false,
      "vote_average": 7.4,
      "title": "The Princess Switch",
      "popularity": 84.943,
      "poster_path": "\/5FssOF42lrsVbJiMe4XNW5IF5hA.jpg",
      "original_language": "en",
      "original_title": "The Princess Switch",
      "genre_ids": [
        35,
        10749
      ],
      "backdrop_path": "\/eZeKHAqNsDAG6r8hi4sMzwqHn5n.jpg",
      "adult": false,
      "overview": "When a down-to-earth Chicago baker and a soon-to-be princess discover they look like twins, they hatch a Christmastime plan to trade places.",
      "release_date": "2018-11-16"
    },
    {
      "vote_count": 83,
      "id": 446807,
      "video": false,
      "vote_average": 5.2,
      "title": "The Girl in the Spider's Web",
      "popularity": 81.84,
      "poster_path": "\/w4ibr8R702DCjwYniry1D1XwQXj.jpg",
      "original_language": "en",
      "original_title": "The Girl in the Spider's Web",
      "genre_ids": [
        18,
        53,
        9648,
        80,
        28
      ],
      "backdrop_path": "\/lWPFKsbN1q9gSeMZypFdbI2WD15.jpg",
      "adult": false,
      "overview": "Lisbeth Salander and Mikael Blomkvist find themselves caught in a web of spies, cyber-criminals and corrupt government officials - both in Sweden and in the United States - whom are only known as The Spider Society.",
      "release_date": "2018-10-26"
    },
    {
      "vote_count": 367,
      "id": 347375,
      "video": false,
      "vote_average": 5.8,
      "title": "Mile 22",
      "popularity": 79.38,
      "poster_path": "\/2L8ehd95eSW9x7KINYtZmRkAlrZ.jpg",
      "original_language": "en",
      "original_title": "Mile 22",
      "genre_ids": [
        28,
        53,
        12,
        80
      ],
      "backdrop_path": "\/A2rIVEV2jOzb4smx8hby1u9UwAm.jpg",
      "adult": false,
      "overview": "An elite group of American operatives, aided by a top-secret tactical command team, must transport an asset who holds life-threatening information to an extraction point 22 miles away through the hostile streets of an Asian city.",
      "release_date": "2018-08-16"
    },
    {
      "vote_count": 476,
      "id": 455207,
      "video": false,
      "vote_average": 7,
      "title": "Crazy Rich Asians",
      "popularity": 79.041,
      "poster_path": "\/1XxL4LJ5WHdrcYcihEZUCgNCpAW.jpg",
      "original_language": "en",
      "original_title": "Crazy Rich Asians",
      "genre_ids": [
        35,
        18,
        10749
      ],
      "backdrop_path": "\/1brgtigBGY1ixSudNMBq0edO1V6.jpg",
      "adult": false,
      "overview": "An American-born Chinese economics professor accompanies her boyfriend to Singapore for his best friend's wedding, only to get thrust into the lives of Asia's rich and famous.",
      "release_date": "2018-08-15"
    },
    {
      "vote_count": 10078,
      "id": 259316,
      "video": false,
      "vote_average": 7.4,
      "title": "Fantastic Beasts and Where to Find Them",
      "popularity": 78.845,
      "poster_path": "\/1M91Bt3oGspda75H9eLqYZkJzgO.jpg",
      "original_language": "en",
      "original_title": "Fantastic Beasts and Where to Find Them",
      "genre_ids": [
        12,
        10751,
        14
      ],
      "backdrop_path": "\/6I2tPx6KIiBB4TWFiWwNUzrbxUn.jpg",
      "adult": false,
      "overview": "In 1926, Newt Scamander arrives at the Magical Congress of the United States of America with a magically expanded briefcase, which houses a number of dangerous creatures and their habitats. When the creatures escape from the briefcase, it sends the American wizarding authorities after Newt, and threatens to strain even further the state of magical and non-magical relations.",
      "release_date": "2016-11-16"
    },
    {
      "vote_count": 3431,
      "id": 363088,
      "video": false,
      "vote_average": 7,
      "title": "Ant-Man and the Wasp",
      "popularity": 76.721,
      "poster_path": "\/rv1AWImgx386ULjcf62VYaW8zSt.jpg",
      "original_language": "en",
      "original_title": "Ant-Man and the Wasp",
      "genre_ids": [
        28,
        12,
        878,
        35,
        10751
      ],
      "backdrop_path": "\/6P3c80EOm7BodndGBUAJHHsHKrp.jpg",
      "adult": false,
      "overview": "Just when his time under house arrest is about to end, Scott Lang puts again his freedom at risk to help Hope van Dyne and Dr. Hank Pym dive into the quantum realm and try to accomplish, against time and any chance of success, a very dangerous rescue mission.",
      "release_date": "2018-07-04"
    },
    {
      "vote_count": 6,
      "id": 404368,
      "video": false,
      "vote_average": 8.4,
      "title": "Ralph Breaks the Internet",
      "popularity": 74.159,
      "poster_path": "\/m110vLaDDOCca4hfOcS5mK5cDke.jpg",
      "original_language": "en",
      "original_title": "Ralph Breaks the Internet",
      "genre_ids": [
        10751,
        16
      ],
      "backdrop_path": "\/ivhK1NjnFji6lD5dkAThSzd3Mgq.jpg",
      "adult": false,
      "overview": "Taking place six years following the events of the first film, the story will center on Ralph's adventures in the Internet data space when a Wi-Fi router gets plugged into the arcade as he must find a replacement part to fix Sugar Rush.",
      "release_date": "2018-11-20"
    }
  ]
}